98,29.56,2013-07-24 01:11:02
99,29.25,2013-07-24 01:11:04
100,29.00,2013-07-24 01:11:06
101,28.94,2013-07-24 01:11:08
102,28.94,2013-07-24 01:11:10
103,29.00,2013-07-24 01:11:12
104,28.94,2013-07-24 01:11:14
105,28.94,2013-07-24 01:11:16
106,28.94,2013-07-24 01:11:18
107,29.00,2013-07-24 01:11:20
108,28.94,2013-07-24 01:11:22
109,28.94,2013-07-24 01:11:24
110,29.00,2013-07-24 01:11:26
111,28.94,2013-07-24 01:11:28
112,28.94,2013-07-24 01:11:30
113,28.94,2013-07-24 01:11:32
114,28.94,2013-07-24 01:11:34
115,29.00,2013-07-24 01:11:36
116,29.00,2013-07-24 01:11:38
117,28.94,2013-07-24 01:11:40
118,28.94,2013-07-24 01:11:42
119,28.94,2013-07-24 01:11:44
120,28.94,2013-07-24 01:11:46
121,28.94,2013-07-24 01:11:48
122,28.94,2013-07-24 01:11:50
123,28.94,2013-07-24 01:11:52
124,28.94,2013-07-24 01:11:54
125,28.94,2013-07-24 01:11:56
126,28.94,2013-07-24 01:11:58
127,28.94,2013-07-24 01:12:00
128,28.94,2013-07-24 01:12:02
129,28.94,2013-07-24 01:12:04
130,28.94,2013-07-24 01:12:06
131,28.94,2013-07-24 01:12:08
132,28.94,2013-07-24 01:12:10
133,28.94,2013-07-24 01:12:13
134,28.88,2013-07-24 01:12:15
135,28.88,2013-07-24 01:12:17
136,28.81,2013-07-24 01:12:19
137,28.81,2013-07-24 01:12:21
138,28.81,2013-07-24 01:12:23
139,28.75,2013-07-24 01:12:25
140,28.75,2013-07-24 01:12:27
141,28.69,2013-07-24 01:12:29
142,28.69,2013-07-24 01:12:31
143,28.69,2013-07-24 01:12:33
144,28.69,2013-07-24 01:12:35
145,28.69,2013-07-24 01:12:37
146,28.63,2013-07-24 01:12:39
147,28.63,2013-07-24 01:12:41
148,28.63,2013-07-24 01:12:43
149,28.56,2013-07-24 01:12:45
